('C:\\throuput\\build\\windowauto\\out00-PYZ.pyz',
 [('encodings.aliases',
   'c:\\python27\\lib\\encodings\\aliases.py',
   'PYMODULE'),
  ('encodings', 'c:\\python27\\lib\\encodings\\__init__.py', 'PYMODULE'),
  ('encodings.idna', 'c:\\python27\\lib\\encodings\\idna.py', 'PYMODULE'),
  ('re', 'c:\\python27\\lib\\re.py', 'PYMODULE'),
  ('sre_constants', 'c:\\python27\\lib\\sre_constants.py', 'PYMODULE'),
  ('sre', 'c:\\python27\\lib\\sre.py', 'PYMODULE'),
  ('warnings', 'c:\\python27\\lib\\warnings.py', 'PYMODULE'),
  ('types', 'c:\\python27\\lib\\types.py', 'PYMODULE'),
  ('linecache', 'c:\\python27\\lib\\linecache.py', 'PYMODULE'),
  ('string', 'c:\\python27\\lib\\string.py', 'PYMODULE'),
  ('copy', 'c:\\python27\\lib\\copy.py', 'PYMODULE'),
  ('repr', 'c:\\python27\\lib\\repr.py', 'PYMODULE'),
  ('weakref', 'c:\\python27\\lib\\weakref.py', 'PYMODULE'),
  ('_weakrefset', 'c:\\python27\\lib\\_weakrefset.py', 'PYMODULE'),
  ('UserDict', 'c:\\python27\\lib\\UserDict.py', 'PYMODULE'),
  ('_abcoll', 'c:\\python27\\lib\\_abcoll.py', 'PYMODULE'),
  ('abc', 'c:\\python27\\lib\\abc.py', 'PYMODULE'),
  ('copy_reg', 'c:\\python27\\lib\\copy_reg.py', 'PYMODULE'),
  ('sre_parse', 'c:\\python27\\lib\\sre_parse.py', 'PYMODULE'),
  ('sre_compile', 'c:\\python27\\lib\\sre_compile.py', 'PYMODULE'),
  ('stringprep', 'c:\\python27\\lib\\stringprep.py', 'PYMODULE'),
  ('encodings.mbcs', 'c:\\python27\\lib\\encodings\\mbcs.py', 'PYMODULE'),
  ('encodings.raw_unicode_escape',
   'c:\\python27\\lib\\encodings\\raw_unicode_escape.py',
   'PYMODULE'),
  ('encodings.gb18030',
   'c:\\python27\\lib\\encodings\\gb18030.py',
   'PYMODULE'),
  ('encodings.shift_jisx0213',
   'c:\\python27\\lib\\encodings\\shift_jisx0213.py',
   'PYMODULE'),
  ('encodings.ascii', 'c:\\python27\\lib\\encodings\\ascii.py', 'PYMODULE'),
  ('encodings.cp861', 'c:\\python27\\lib\\encodings\\cp861.py', 'PYMODULE'),
  ('encodings.cp860', 'c:\\python27\\lib\\encodings\\cp860.py', 'PYMODULE'),
  ('encodings.cp863', 'c:\\python27\\lib\\encodings\\cp863.py', 'PYMODULE'),
  ('encodings.cp862', 'c:\\python27\\lib\\encodings\\cp862.py', 'PYMODULE'),
  ('encodings.cp865', 'c:\\python27\\lib\\encodings\\cp865.py', 'PYMODULE'),
  ('encodings.big5hkscs',
   'c:\\python27\\lib\\encodings\\big5hkscs.py',
   'PYMODULE'),
  ('encodings.cp866', 'c:\\python27\\lib\\encodings\\cp866.py', 'PYMODULE'),
  ('encodings.cp869', 'c:\\python27\\lib\\encodings\\cp869.py', 'PYMODULE'),
  ('encodings.mac_latin2',
   'c:\\python27\\lib\\encodings\\mac_latin2.py',
   'PYMODULE'),
  ('encodings.hex_codec',
   'c:\\python27\\lib\\encodings\\hex_codec.py',
   'PYMODULE'),
  ('encodings.cp950', 'c:\\python27\\lib\\encodings\\cp950.py', 'PYMODULE'),
  ('encodings.quopri_codec',
   'c:\\python27\\lib\\encodings\\quopri_codec.py',
   'PYMODULE'),
  ('StringIO', 'c:\\python27\\lib\\StringIO.py', 'PYMODULE'),
  ('quopri', 'c:\\python27\\lib\\quopri.py', 'PYMODULE'),
  ('getopt', 'c:\\python27\\lib\\getopt.py', 'PYMODULE'),
  ('encodings.utf_32_be',
   'c:\\python27\\lib\\encodings\\utf_32_be.py',
   'PYMODULE'),
  ('encodings.string_escape',
   'c:\\python27\\lib\\encodings\\string_escape.py',
   'PYMODULE'),
  ('encodings.cp1250', 'c:\\python27\\lib\\encodings\\cp1250.py', 'PYMODULE'),
  ('encodings.cp1251', 'c:\\python27\\lib\\encodings\\cp1251.py', 'PYMODULE'),
  ('encodings.cp1252', 'c:\\python27\\lib\\encodings\\cp1252.py', 'PYMODULE'),
  ('encodings.cp1253', 'c:\\python27\\lib\\encodings\\cp1253.py', 'PYMODULE'),
  ('encodings.cp1254', 'c:\\python27\\lib\\encodings\\cp1254.py', 'PYMODULE'),
  ('encodings.cp1255', 'c:\\python27\\lib\\encodings\\cp1255.py', 'PYMODULE'),
  ('encodings.cp1256', 'c:\\python27\\lib\\encodings\\cp1256.py', 'PYMODULE'),
  ('encodings.cp1257', 'c:\\python27\\lib\\encodings\\cp1257.py', 'PYMODULE'),
  ('encodings.cp1258', 'c:\\python27\\lib\\encodings\\cp1258.py', 'PYMODULE'),
  ('encodings.euc_jp', 'c:\\python27\\lib\\encodings\\euc_jp.py', 'PYMODULE'),
  ('encodings.hz', 'c:\\python27\\lib\\encodings\\hz.py', 'PYMODULE'),
  ('encodings.mac_cyrillic',
   'c:\\python27\\lib\\encodings\\mac_cyrillic.py',
   'PYMODULE'),
  ('encodings.iso2022_kr',
   'c:\\python27\\lib\\encodings\\iso2022_kr.py',
   'PYMODULE'),
  ('encodings.unicode_internal',
   'c:\\python27\\lib\\encodings\\unicode_internal.py',
   'PYMODULE'),
  ('encodings.cp500', 'c:\\python27\\lib\\encodings\\cp500.py', 'PYMODULE'),
  ('encodings.iso8859_10',
   'c:\\python27\\lib\\encodings\\iso8859_10.py',
   'PYMODULE'),
  ('encodings.iso8859_11',
   'c:\\python27\\lib\\encodings\\iso8859_11.py',
   'PYMODULE'),
  ('encodings.iso8859_13',
   'c:\\python27\\lib\\encodings\\iso8859_13.py',
   'PYMODULE'),
  ('encodings.iso8859_14',
   'c:\\python27\\lib\\encodings\\iso8859_14.py',
   'PYMODULE'),
  ('encodings.cp424', 'c:\\python27\\lib\\encodings\\cp424.py', 'PYMODULE'),
  ('encodings.iso8859_16',
   'c:\\python27\\lib\\encodings\\iso8859_16.py',
   'PYMODULE'),
  ('encodings.cp1006', 'c:\\python27\\lib\\encodings\\cp1006.py', 'PYMODULE'),
  ('encodings.hp_roman8',
   'c:\\python27\\lib\\encodings\\hp_roman8.py',
   'PYMODULE'),
  ('encodings.charmap',
   'c:\\python27\\lib\\encodings\\charmap.py',
   'PYMODULE'),
  ('encodings.utf_32', 'c:\\python27\\lib\\encodings\\utf_32.py', 'PYMODULE'),
  ('encodings.latin_1',
   'c:\\python27\\lib\\encodings\\latin_1.py',
   'PYMODULE'),
  ('encodings.utf_16_be',
   'c:\\python27\\lib\\encodings\\utf_16_be.py',
   'PYMODULE'),
  ('encodings.cp737', 'c:\\python27\\lib\\encodings\\cp737.py', 'PYMODULE'),
  ('encodings.utf_16', 'c:\\python27\\lib\\encodings\\utf_16.py', 'PYMODULE'),
  ('encodings.cp437', 'c:\\python27\\lib\\encodings\\cp437.py', 'PYMODULE'),
  ('encodings.mac_roman',
   'c:\\python27\\lib\\encodings\\mac_roman.py',
   'PYMODULE'),
  ('encodings.mac_centeuro',
   'c:\\python27\\lib\\encodings\\mac_centeuro.py',
   'PYMODULE'),
  ('encodings.mac_croatian',
   'c:\\python27\\lib\\encodings\\mac_croatian.py',
   'PYMODULE'),
  ('encodings.punycode',
   'c:\\python27\\lib\\encodings\\punycode.py',
   'PYMODULE'),
  ('encodings.unicode_escape',
   'c:\\python27\\lib\\encodings\\unicode_escape.py',
   'PYMODULE'),
  ('encodings.bz2_codec',
   'c:\\python27\\lib\\encodings\\bz2_codec.py',
   'PYMODULE'),
  ('encodings.rot_13', 'c:\\python27\\lib\\encodings\\rot_13.py', 'PYMODULE'),
  ('encodings.cp874', 'c:\\python27\\lib\\encodings\\cp874.py', 'PYMODULE'),
  ('encodings.cp875', 'c:\\python27\\lib\\encodings\\cp875.py', 'PYMODULE'),
  ('encodings.cp720', 'c:\\python27\\lib\\encodings\\cp720.py', 'PYMODULE'),
  ('encodings.tis_620',
   'c:\\python27\\lib\\encodings\\tis_620.py',
   'PYMODULE'),
  ('encodings.zlib_codec',
   'c:\\python27\\lib\\encodings\\zlib_codec.py',
   'PYMODULE'),
  ('encodings.iso2022_jp_2004',
   'c:\\python27\\lib\\encodings\\iso2022_jp_2004.py',
   'PYMODULE'),
  ('encodings.euc_jisx0213',
   'c:\\python27\\lib\\encodings\\euc_jisx0213.py',
   'PYMODULE'),
  ('encodings.ptcp154',
   'c:\\python27\\lib\\encodings\\ptcp154.py',
   'PYMODULE'),
  ('encodings.uu_codec',
   'c:\\python27\\lib\\encodings\\uu_codec.py',
   'PYMODULE'),
  ('encodings.utf_16_le',
   'c:\\python27\\lib\\encodings\\utf_16_le.py',
   'PYMODULE'),
  ('encodings.iso2022_jp_2',
   'c:\\python27\\lib\\encodings\\iso2022_jp_2.py',
   'PYMODULE'),
  ('encodings.iso2022_jp_3',
   'c:\\python27\\lib\\encodings\\iso2022_jp_3.py',
   'PYMODULE'),
  ('encodings.iso2022_jp_1',
   'c:\\python27\\lib\\encodings\\iso2022_jp_1.py',
   'PYMODULE'),
  ('encodings.mac_romanian',
   'c:\\python27\\lib\\encodings\\mac_romanian.py',
   'PYMODULE'),
  ('encodings.cp1026', 'c:\\python27\\lib\\encodings\\cp1026.py', 'PYMODULE'),
  ('encodings.mac_farsi',
   'c:\\python27\\lib\\encodings\\mac_farsi.py',
   'PYMODULE'),
  ('encodings.undefined',
   'c:\\python27\\lib\\encodings\\undefined.py',
   'PYMODULE'),
  ('encodings.mac_turkish',
   'c:\\python27\\lib\\encodings\\mac_turkish.py',
   'PYMODULE'),
  ('encodings.koi8_u', 'c:\\python27\\lib\\encodings\\koi8_u.py', 'PYMODULE'),
  ('encodings.koi8_r', 'c:\\python27\\lib\\encodings\\koi8_r.py', 'PYMODULE'),
  ('encodings.utf_8_sig',
   'c:\\python27\\lib\\encodings\\utf_8_sig.py',
   'PYMODULE'),
  ('encodings.iso2022_jp',
   'c:\\python27\\lib\\encodings\\iso2022_jp.py',
   'PYMODULE'),
  ('encodings.palmos', 'c:\\python27\\lib\\encodings\\palmos.py', 'PYMODULE'),
  ('encodings.mac_greek',
   'c:\\python27\\lib\\encodings\\mac_greek.py',
   'PYMODULE'),
  ('encodings.shift_jis_2004',
   'c:\\python27\\lib\\encodings\\shift_jis_2004.py',
   'PYMODULE'),
  ('encodings.gbk', 'c:\\python27\\lib\\encodings\\gbk.py', 'PYMODULE'),
  ('encodings.mac_iceland',
   'c:\\python27\\lib\\encodings\\mac_iceland.py',
   'PYMODULE'),
  ('encodings.cp858', 'c:\\python27\\lib\\encodings\\cp858.py', 'PYMODULE'),
  ('encodings.cp850', 'c:\\python27\\lib\\encodings\\cp850.py', 'PYMODULE'),
  ('encodings.cp852', 'c:\\python27\\lib\\encodings\\cp852.py', 'PYMODULE'),
  ('encodings.cp855', 'c:\\python27\\lib\\encodings\\cp855.py', 'PYMODULE'),
  ('encodings.cp856', 'c:\\python27\\lib\\encodings\\cp856.py', 'PYMODULE'),
  ('encodings.cp857', 'c:\\python27\\lib\\encodings\\cp857.py', 'PYMODULE'),
  ('encodings.iso8859_4',
   'c:\\python27\\lib\\encodings\\iso8859_4.py',
   'PYMODULE'),
  ('encodings.iso8859_5',
   'c:\\python27\\lib\\encodings\\iso8859_5.py',
   'PYMODULE'),
  ('encodings.iso8859_6',
   'c:\\python27\\lib\\encodings\\iso8859_6.py',
   'PYMODULE'),
  ('encodings.iso8859_7',
   'c:\\python27\\lib\\encodings\\iso8859_7.py',
   'PYMODULE'),
  ('encodings.iso8859_1',
   'c:\\python27\\lib\\encodings\\iso8859_1.py',
   'PYMODULE'),
  ('encodings.iso8859_2',
   'c:\\python27\\lib\\encodings\\iso8859_2.py',
   'PYMODULE'),
  ('encodings.iso8859_3',
   'c:\\python27\\lib\\encodings\\iso8859_3.py',
   'PYMODULE'),
  ('encodings.gb2312', 'c:\\python27\\lib\\encodings\\gb2312.py', 'PYMODULE'),
  ('encodings.iso8859_8',
   'c:\\python27\\lib\\encodings\\iso8859_8.py',
   'PYMODULE'),
  ('encodings.iso8859_9',
   'c:\\python27\\lib\\encodings\\iso8859_9.py',
   'PYMODULE'),
  ('encodings.cp949', 'c:\\python27\\lib\\encodings\\cp949.py', 'PYMODULE'),
  ('encodings.cp864', 'c:\\python27\\lib\\encodings\\cp864.py', 'PYMODULE'),
  ('encodings.base64_codec',
   'c:\\python27\\lib\\encodings\\base64_codec.py',
   'PYMODULE'),
  ('base64', 'c:\\python27\\lib\\base64.py', 'PYMODULE'),
  ('struct', 'c:\\python27\\lib\\struct.py', 'PYMODULE'),
  ('encodings.cp037', 'c:\\python27\\lib\\encodings\\cp037.py', 'PYMODULE'),
  ('encodings.utf_8', 'c:\\python27\\lib\\encodings\\utf_8.py', 'PYMODULE'),
  ('encodings.mac_arabic',
   'c:\\python27\\lib\\encodings\\mac_arabic.py',
   'PYMODULE'),
  ('encodings.euc_kr', 'c:\\python27\\lib\\encodings\\euc_kr.py', 'PYMODULE'),
  ('encodings.utf_7', 'c:\\python27\\lib\\encodings\\utf_7.py', 'PYMODULE'),
  ('encodings.shift_jis',
   'c:\\python27\\lib\\encodings\\shift_jis.py',
   'PYMODULE'),
  ('encodings.utf_32_le',
   'c:\\python27\\lib\\encodings\\utf_32_le.py',
   'PYMODULE'),
  ('encodings.euc_jis_2004',
   'c:\\python27\\lib\\encodings\\euc_jis_2004.py',
   'PYMODULE'),
  ('encodings.cp775', 'c:\\python27\\lib\\encodings\\cp775.py', 'PYMODULE'),
  ('encodings.cp1140', 'c:\\python27\\lib\\encodings\\cp1140.py', 'PYMODULE'),
  ('encodings.big5', 'c:\\python27\\lib\\encodings\\big5.py', 'PYMODULE'),
  ('encodings.iso8859_15',
   'c:\\python27\\lib\\encodings\\iso8859_15.py',
   'PYMODULE'),
  ('encodings.iso2022_jp_ext',
   'c:\\python27\\lib\\encodings\\iso2022_jp_ext.py',
   'PYMODULE'),
  ('encodings.johab', 'c:\\python27\\lib\\encodings\\johab.py', 'PYMODULE'),
  ('encodings.cp932', 'c:\\python27\\lib\\encodings\\cp932.py', 'PYMODULE'),
  ('codecs', 'c:\\python27\\lib\\codecs.py', 'PYMODULE'),
  ('threading', 'c:\\python27\\lib\\threading.py', 'PYMODULE'),
  ('random', 'c:\\python27\\lib\\random.py', 'PYMODULE'),
  ('hashlib', 'c:\\python27\\lib\\hashlib.py', 'PYMODULE'),
  ('logging', 'c:\\python27\\lib\\logging\\__init__.py', 'PYMODULE'),
  ('atexit', 'c:\\python27\\lib\\atexit.py', 'PYMODULE'),
  ('__future__', 'c:\\python27\\lib\\__future__.py', 'PYMODULE'),
  ('_threading_local', 'c:\\python27\\lib\\_threading_local.py', 'PYMODULE'),
  ('traceback', 'c:\\python27\\lib\\traceback.py', 'PYMODULE'),
  ('collections', 'c:\\python27\\lib\\collections.py', 'PYMODULE'),
  ('doctest', 'c:\\python27\\lib\\doctest.py', 'PYMODULE'),
  ('tempfile', 'c:\\python27\\lib\\tempfile.py', 'PYMODULE'),
  ('io', 'c:\\python27\\lib\\io.py', 'PYMODULE'),
  ('pdb', 'c:\\python27\\lib\\pdb.py', 'PYMODULE'),
  ('shlex', 'c:\\python27\\lib\\shlex.py', 'PYMODULE'),
  ('ntpath', 'c:\\python27\\lib\\ntpath.py', 'PYMODULE'),
  ('genericpath', 'c:\\python27\\lib\\genericpath.py', 'PYMODULE'),
  ('stat', 'c:\\python27\\lib\\stat.py', 'PYMODULE'),
  ('pprint', 'c:\\python27\\lib\\pprint.py', 'PYMODULE'),
  ('bdb', 'c:\\python27\\lib\\bdb.py', 'PYMODULE'),
  ('fnmatch', 'c:\\python27\\lib\\fnmatch.py', 'PYMODULE'),
  ('posixpath', 'c:\\python27\\lib\\posixpath.py', 'PYMODULE'),
  ('cmd', 'c:\\python27\\lib\\cmd.py', 'PYMODULE'),
  ('difflib', 'c:\\python27\\lib\\difflib.py', 'PYMODULE'),
  ('functools', 'c:\\python27\\lib\\functools.py', 'PYMODULE'),
  ('unittest', 'c:\\python27\\lib\\unittest\\__init__.py', 'PYMODULE'),
  ('unittest.signals', 'c:\\python27\\lib\\unittest\\signals.py', 'PYMODULE'),
  ('unittest.main', 'c:\\python27\\lib\\unittest\\main.py', 'PYMODULE'),
  ('optparse', 'c:\\python27\\lib\\optparse.py', 'PYMODULE'),
  ('gettext', 'c:\\python27\\lib\\gettext.py', 'PYMODULE'),
  ('locale', 'c:\\python27\\lib\\locale.py', 'PYMODULE'),
  ('textwrap', 'c:\\python27\\lib\\textwrap.py', 'PYMODULE'),
  ('unittest.runner', 'c:\\python27\\lib\\unittest\\runner.py', 'PYMODULE'),
  ('unittest.loader', 'c:\\python27\\lib\\unittest\\loader.py', 'PYMODULE'),
  ('unittest.suite', 'c:\\python27\\lib\\unittest\\suite.py', 'PYMODULE'),
  ('unittest.case', 'c:\\python27\\lib\\unittest\\case.py', 'PYMODULE'),
  ('unittest.result', 'c:\\python27\\lib\\unittest\\result.py', 'PYMODULE'),
  ('unittest.util', 'c:\\python27\\lib\\unittest\\util.py', 'PYMODULE'),
  ('inspect', 'c:\\python27\\lib\\inspect.py', 'PYMODULE'),
  ('tokenize', 'c:\\python27\\lib\\tokenize.py', 'PYMODULE'),
  ('token', 'c:\\python27\\lib\\token.py', 'PYMODULE'),
  ('dis', 'c:\\python27\\lib\\dis.py', 'PYMODULE'),
  ('opcode', 'c:\\python27\\lib\\opcode.py', 'PYMODULE'),
  ('dummy_thread', 'c:\\python27\\lib\\dummy_thread.py', 'PYMODULE'),
  ('heapq', 'c:\\python27\\lib\\heapq.py', 'PYMODULE'),
  ('keyword', 'c:\\python27\\lib\\keyword.py', 'PYMODULE'),
  ('wifi', 'C:\\throuput\\wifi.py', 'PYMODULE'),
  ('Tkinter', 'c:\\python27\\lib\\lib-tk\\Tkinter.py', 'PYMODULE'),
  ('Tkconstants', 'c:\\python27\\lib\\lib-tk\\Tkconstants.py', 'PYMODULE'),
  ('FixTk', 'c:\\python27\\lib\\lib-tk\\FixTk.py', 'PYMODULE'),
  ('ctypes', 'c:\\python27\\lib\\ctypes\\__init__.py', 'PYMODULE'),
  ('ctypes._endian', 'c:\\python27\\lib\\ctypes\\_endian.py', 'PYMODULE'),
  ('tm', 'C:\\throuput\\tm.py', 'PYMODULE'),
  ('socket', 'c:\\python27\\lib\\socket.py', 'PYMODULE'),
  ('ssl', 'c:\\python27\\lib\\ssl.py', 'PYMODULE'),
  ('calendar', 'c:\\python27\\lib\\calendar.py', 'PYMODULE'),
  ('contextlib', 'c:\\python27\\lib\\contextlib.py', 'PYMODULE'),
  ('xml.etree.ElementTree',
   'c:\\python27\\lib\\xml\\etree\\ElementTree.py',
   'PYMODULE'),
  ('xml.parsers.expat',
   'c:\\python27\\lib\\xml\\parsers\\expat.py',
   'PYMODULE'),
  ('xml.parsers', 'c:\\python27\\lib\\xml\\parsers\\__init__.py', 'PYMODULE'),
  ('xml', 'c:\\python27\\lib\\xml\\__init__.py', 'PYMODULE'),
  ('xml.sax.expatreader',
   'c:\\python27\\lib\\xml\\sax\\expatreader.py',
   'PYMODULE'),
  ('xml.sax.saxutils',
   'c:\\python27\\lib\\xml\\sax\\saxutils.py',
   'PYMODULE'),
  ('urllib', 'c:\\python27\\lib\\urllib.py', 'PYMODULE'),
  ('getpass', 'c:\\python27\\lib\\getpass.py', 'PYMODULE'),
  ('ftplib', 'c:\\python27\\lib\\ftplib.py', 'PYMODULE'),
  ('email.utils', 'c:\\python27\\lib\\email\\utils.py', 'PYMODULE'),
  ('email.encoders', 'c:\\python27\\lib\\email\\encoders.py', 'PYMODULE'),
  ('email._parseaddr', 'c:\\python27\\lib\\email\\_parseaddr.py', 'PYMODULE'),
  ('email', 'c:\\python27\\lib\\email\\__init__.py', 'PYMODULE'),
  ('email.mime', 'c:\\python27\\lib\\email\\mime\\__init__.py', 'PYMODULE'),
  ('email.parser', 'c:\\python27\\lib\\email\\parser.py', 'PYMODULE'),
  ('email.feedparser', 'c:\\python27\\lib\\email\\feedparser.py', 'PYMODULE'),
  ('email.message', 'c:\\python27\\lib\\email\\message.py', 'PYMODULE'),
  ('email.iterators', 'c:\\python27\\lib\\email\\iterators.py', 'PYMODULE'),
  ('email.generator', 'c:\\python27\\lib\\email\\generator.py', 'PYMODULE'),
  ('email.header', 'c:\\python27\\lib\\email\\header.py', 'PYMODULE'),
  ('email.base64mime', 'c:\\python27\\lib\\email\\base64mime.py', 'PYMODULE'),
  ('email.quoprimime', 'c:\\python27\\lib\\email\\quoprimime.py', 'PYMODULE'),
  ('email.charset', 'c:\\python27\\lib\\email\\charset.py', 'PYMODULE'),
  ('uu', 'c:\\python27\\lib\\uu.py', 'PYMODULE'),
  ('email.errors', 'c:\\python27\\lib\\email\\errors.py', 'PYMODULE'),
  ('mimetools', 'c:\\python27\\lib\\mimetools.py', 'PYMODULE'),
  ('rfc822', 'c:\\python27\\lib\\rfc822.py', 'PYMODULE'),
  ('mimetypes', 'c:\\python27\\lib\\mimetypes.py', 'PYMODULE'),
  ('httplib', 'c:\\python27\\lib\\httplib.py', 'PYMODULE'),
  ('nturl2path', 'c:\\python27\\lib\\nturl2path.py', 'PYMODULE'),
  ('urlparse', 'c:\\python27\\lib\\urlparse.py', 'PYMODULE'),
  ('xml.sax', 'c:\\python27\\lib\\xml\\sax\\__init__.py', 'PYMODULE'),
  ('xml.sax.handler', 'c:\\python27\\lib\\xml\\sax\\handler.py', 'PYMODULE'),
  ('xml.sax._exceptions',
   'c:\\python27\\lib\\xml\\sax\\_exceptions.py',
   'PYMODULE'),
  ('xml.sax.xmlreader',
   'c:\\python27\\lib\\xml\\sax\\xmlreader.py',
   'PYMODULE'),
  ('xml.etree.ElementPath',
   'c:\\python27\\lib\\xml\\etree\\ElementPath.py',
   'PYMODULE'),
  ('xml.etree', 'c:\\python27\\lib\\xml\\etree\\__init__.py', 'PYMODULE'),
  ('view', 'C:\\throuput\\view.py', 'PYMODULE'),
  ('wx.xrc', 'c:\\python27\\lib\\site-packages\\wx\\xrc.py', 'PYMODULE'),
  ('requests',
   'c:\\python27\\lib\\site-packages\\requests\\__init__.py',
   'PYMODULE'),
  ('requests.status_codes',
   'c:\\python27\\lib\\site-packages\\requests\\status_codes.py',
   'PYMODULE'),
  ('requests.structures',
   'c:\\python27\\lib\\site-packages\\requests\\structures.py',
   'PYMODULE'),
  ('requests.compat',
   'c:\\python27\\lib\\site-packages\\requests\\compat.py',
   'PYMODULE'),
  ('http.cookies',
   'c:\\python27\\lib\\site-packages\\http\\cookies.py',
   'PYMODULE'),
  ('http.cookiejar',
   'c:\\python27\\lib\\site-packages\\http\\cookiejar.py',
   'PYMODULE'),
  ('http', 'c:\\python27\\lib\\site-packages\\http\\__init__.py', 'PYMODULE'),
  ('urllib3.packages.ordered_dict',
   'c:\\python27\\lib\\site-packages\\urllib3\\packages\\ordered_dict.py',
   'PYMODULE'),
  ('urllib3.packages',
   'c:\\python27\\lib\\site-packages\\urllib3\\packages\\__init__.py',
   'PYMODULE'),
  ('urllib3.packages.ssl_match_hostname',
   'c:\\python27\\lib\\site-packages\\urllib3\\packages\\ssl_match_hostname\\__init__.py',
   'PYMODULE'),
  ('urllib3.packages.ssl_match_hostname._implementation',
   'c:\\python27\\lib\\site-packages\\urllib3\\packages\\ssl_match_hostname\\_implementation.py',
   'PYMODULE'),
  ('Cookie', 'c:\\python27\\lib\\Cookie.py', 'PYMODULE'),
  ('pickle', 'c:\\python27\\lib\\pickle.py', 'PYMODULE'),
  ('cookielib', 'c:\\python27\\lib\\cookielib.py', 'PYMODULE'),
  ('_MozillaCookieJar',
   'c:\\python27\\lib\\_MozillaCookieJar.py',
   'PYMODULE'),
  ('_LWPCookieJar', 'c:\\python27\\lib\\_LWPCookieJar.py', 'PYMODULE'),
  ('dummy_threading', 'c:\\python27\\lib\\dummy_threading.py', 'PYMODULE'),
  ('urllib2', 'c:\\python27\\lib\\urllib2.py', 'PYMODULE'),
  ('bisect', 'c:\\python27\\lib\\bisect.py', 'PYMODULE'),
  ('json', 'c:\\python27\\lib\\json\\__init__.py', 'PYMODULE'),
  ('json.encoder', 'c:\\python27\\lib\\json\\encoder.py', 'PYMODULE'),
  ('json.decoder', 'c:\\python27\\lib\\json\\decoder.py', 'PYMODULE'),
  ('json.scanner', 'c:\\python27\\lib\\json\\scanner.py', 'PYMODULE'),
  ('requests.api',
   'c:\\python27\\lib\\site-packages\\requests\\api.py',
   'PYMODULE'),
  ('requests.sessions',
   'c:\\python27\\lib\\site-packages\\requests\\sessions.py',
   'PYMODULE'),
  ('requests.adapters',
   'c:\\python27\\lib\\site-packages\\requests\\adapters.py',
   'PYMODULE'),
  ('urllib3.contrib.socks',
   'c:\\python27\\lib\\site-packages\\urllib3\\contrib\\socks.py',
   'PYMODULE'),
  ('urllib3.util.url',
   'c:\\python27\\lib\\site-packages\\urllib3\\util\\url.py',
   'PYMODULE'),
  ('urllib3.connectionpool',
   'c:\\python27\\lib\\site-packages\\urllib3\\connectionpool.py',
   'PYMODULE'),
  ('Queue', 'c:\\python27\\lib\\Queue.py', 'PYMODULE'),
  ('urllib3.util.timeout',
   'c:\\python27\\lib\\site-packages\\urllib3\\util\\timeout.py',
   'PYMODULE'),
  ('urllib3.util.response',
   'c:\\python27\\lib\\site-packages\\urllib3\\util\\response.py',
   'PYMODULE'),
  ('urllib3.util.request',
   'c:\\python27\\lib\\site-packages\\urllib3\\util\\request.py',
   'PYMODULE'),
  ('urllib3.util.connection',
   'c:\\python27\\lib\\site-packages\\urllib3\\util\\connection.py',
   'PYMODULE'),
  ('urllib3.util.selectors',
   'c:\\python27\\lib\\site-packages\\urllib3\\util\\selectors.py',
   'PYMODULE'),
  ('urllib3.util.wait',
   'c:\\python27\\lib\\site-packages\\urllib3\\util\\wait.py',
   'PYMODULE'),
  ('urllib3.request',
   'c:\\python27\\lib\\site-packages\\urllib3\\request.py',
   'PYMODULE'),
  ('urllib3.filepost',
   'c:\\python27\\lib\\site-packages\\urllib3\\filepost.py',
   'PYMODULE'),
  ('urllib3.fields',
   'c:\\python27\\lib\\site-packages\\urllib3\\fields.py',
   'PYMODULE'),
  ('uuid', 'c:\\python27\\lib\\uuid.py', 'PYMODULE'),
  ('ctypes.util', 'c:\\python27\\lib\\ctypes\\util.py', 'PYMODULE'),
  ('ctypes.macholib.dyld',
   'c:\\python27\\lib\\ctypes\\macholib\\dyld.py',
   'PYMODULE'),
  ('ctypes.macholib',
   'c:\\python27\\lib\\ctypes\\macholib\\__init__.py',
   'PYMODULE'),
  ('ctypes.macholib.dylib',
   'c:\\python27\\lib\\ctypes\\macholib\\dylib.py',
   'PYMODULE'),
  ('ctypes.macholib.framework',
   'c:\\python27\\lib\\ctypes\\macholib\\framework.py',
   'PYMODULE'),
  ('subprocess', 'c:\\python27\\lib\\subprocess.py', 'PYMODULE'),
  ('netbios',
   'c:\\python27\\lib\\site-packages\\win32\\lib\\netbios.py',
   'PYMODULE'),
  ('urllib3.packages.six',
   'c:\\python27\\lib\\site-packages\\urllib3\\packages\\six.py',
   'PYMODULE'),
  ('urllib3.connection',
   'c:\\python27\\lib\\site-packages\\urllib3\\connection.py',
   'PYMODULE'),
  ('urllib3._collections',
   'c:\\python27\\lib\\site-packages\\urllib3\\_collections.py',
   'PYMODULE'),
  ('urllib3.util.ssl_',
   'c:\\python27\\lib\\site-packages\\urllib3\\util\\ssl_.py',
   'PYMODULE'),
  ('hmac', 'c:\\python27\\lib\\hmac.py', 'PYMODULE'),
  ('urllib3.util.retry',
   'c:\\python27\\lib\\site-packages\\urllib3\\util\\retry.py',
   'PYMODULE'),
  ('urllib3.util',
   'c:\\python27\\lib\\site-packages\\urllib3\\util\\__init__.py',
   'PYMODULE'),
  ('urllib3.response',
   'c:\\python27\\lib\\site-packages\\urllib3\\response.py',
   'PYMODULE'),
  ('urllib3.poolmanager',
   'c:\\python27\\lib\\site-packages\\urllib3\\poolmanager.py',
   'PYMODULE'),
  ('requests._internal_utils',
   'c:\\python27\\lib\\site-packages\\requests\\_internal_utils.py',
   'PYMODULE'),
  ('requests.hooks',
   'c:\\python27\\lib\\site-packages\\requests\\hooks.py',
   'PYMODULE'),
  ('requests.cookies',
   'c:\\python27\\lib\\site-packages\\requests\\cookies.py',
   'PYMODULE'),
  ('requests.auth',
   'c:\\python27\\lib\\site-packages\\requests\\auth.py',
   'PYMODULE'),
  ('platform', 'c:\\python27\\lib\\platform.py', 'PYMODULE'),
  ('plistlib', 'c:\\python27\\lib\\plistlib.py', 'PYMODULE'),
  ('winreg',
   'c:\\python27\\lib\\site-packages\\winreg\\__init__.py',
   'PYMODULE'),
  ('ctypes.wintypes', 'c:\\python27\\lib\\ctypes\\wintypes.py', 'PYMODULE'),
  ('requests.models',
   'c:\\python27\\lib\\site-packages\\requests\\models.py',
   'PYMODULE'),
  ('idna', 'c:\\python27\\lib\\site-packages\\idna\\__init__.py', 'PYMODULE'),
  ('idna.core',
   'c:\\python27\\lib\\site-packages\\idna\\core.py',
   'PYMODULE'),
  ('idna.uts46data',
   'c:\\python27\\lib\\site-packages\\idna\\uts46data.py',
   'PYMODULE'),
  ('idna.intranges',
   'c:\\python27\\lib\\site-packages\\idna\\intranges.py',
   'PYMODULE'),
  ('idna.idnadata',
   'c:\\python27\\lib\\site-packages\\idna\\idnadata.py',
   'PYMODULE'),
  ('idna.package_data',
   'c:\\python27\\lib\\site-packages\\idna\\package_data.py',
   'PYMODULE'),
  ('requests.packages',
   'c:\\python27\\lib\\site-packages\\requests\\packages.py',
   'PYMODULE'),
  ('requests.utils',
   'c:\\python27\\lib\\site-packages\\requests\\utils.py',
   'PYMODULE'),
  ('netrc', 'c:\\python27\\lib\\netrc.py', 'PYMODULE'),
  ('cgi', 'c:\\python27\\lib\\cgi.py', 'PYMODULE'),
  ('requests.certs',
   'c:\\python27\\lib\\site-packages\\requests\\certs.py',
   'PYMODULE'),
  ('certifi',
   'c:\\python27\\lib\\site-packages\\certifi\\__init__.py',
   'PYMODULE'),
  ('certifi.core',
   'c:\\python27\\lib\\site-packages\\certifi\\core.py',
   'PYMODULE'),
  ('requests.__version__',
   'c:\\python27\\lib\\site-packages\\requests\\__version__.py',
   'PYMODULE'),
  ('urllib3.exceptions',
   'c:\\python27\\lib\\site-packages\\urllib3\\exceptions.py',
   'PYMODULE'),
  ('urllib3.contrib.pyopenssl',
   'c:\\python27\\lib\\site-packages\\urllib3\\contrib\\pyopenssl.py',
   'PYMODULE'),
  ('urllib3.packages.backports.makefile',
   'c:\\python27\\lib\\site-packages\\urllib3\\packages\\backports\\makefile.py',
   'PYMODULE'),
  ('urllib3.packages.backports',
   'c:\\python27\\lib\\site-packages\\urllib3\\packages\\backports\\__init__.py',
   'PYMODULE'),
  ('urllib3.contrib',
   'c:\\python27\\lib\\site-packages\\urllib3\\contrib\\__init__.py',
   'PYMODULE'),
  ('requests.exceptions',
   'c:\\python27\\lib\\site-packages\\requests\\exceptions.py',
   'PYMODULE'),
  ('chardet',
   'c:\\python27\\lib\\site-packages\\chardet\\__init__.py',
   'PYMODULE'),
  ('chardet.version',
   'c:\\python27\\lib\\site-packages\\chardet\\version.py',
   'PYMODULE'),
  ('chardet.universaldetector',
   'c:\\python27\\lib\\site-packages\\chardet\\universaldetector.py',
   'PYMODULE'),
  ('chardet.sbcsgroupprober',
   'c:\\python27\\lib\\site-packages\\chardet\\sbcsgroupprober.py',
   'PYMODULE'),
  ('chardet.langturkishmodel',
   'c:\\python27\\lib\\site-packages\\chardet\\langturkishmodel.py',
   'PYMODULE'),
  ('chardet.hebrewprober',
   'c:\\python27\\lib\\site-packages\\chardet\\hebrewprober.py',
   'PYMODULE'),
  ('chardet.charsetprober',
   'c:\\python27\\lib\\site-packages\\chardet\\charsetprober.py',
   'PYMODULE'),
  ('chardet.langhebrewmodel',
   'c:\\python27\\lib\\site-packages\\chardet\\langhebrewmodel.py',
   'PYMODULE'),
  ('chardet.langthaimodel',
   'c:\\python27\\lib\\site-packages\\chardet\\langthaimodel.py',
   'PYMODULE'),
  ('chardet.langbulgarianmodel',
   'c:\\python27\\lib\\site-packages\\chardet\\langbulgarianmodel.py',
   'PYMODULE'),
  ('chardet.langgreekmodel',
   'c:\\python27\\lib\\site-packages\\chardet\\langgreekmodel.py',
   'PYMODULE'),
  ('chardet.langcyrillicmodel',
   'c:\\python27\\lib\\site-packages\\chardet\\langcyrillicmodel.py',
   'PYMODULE'),
  ('chardet.sbcharsetprober',
   'c:\\python27\\lib\\site-packages\\chardet\\sbcharsetprober.py',
   'PYMODULE'),
  ('chardet.mbcsgroupprober',
   'c:\\python27\\lib\\site-packages\\chardet\\mbcsgroupprober.py',
   'PYMODULE'),
  ('chardet.euctwprober',
   'c:\\python27\\lib\\site-packages\\chardet\\euctwprober.py',
   'PYMODULE'),
  ('chardet.mbcssm',
   'c:\\python27\\lib\\site-packages\\chardet\\mbcssm.py',
   'PYMODULE'),
  ('chardet.chardistribution',
   'c:\\python27\\lib\\site-packages\\chardet\\chardistribution.py',
   'PYMODULE'),
  ('chardet.jisfreq',
   'c:\\python27\\lib\\site-packages\\chardet\\jisfreq.py',
   'PYMODULE'),
  ('chardet.big5freq',
   'c:\\python27\\lib\\site-packages\\chardet\\big5freq.py',
   'PYMODULE'),
  ('chardet.gb2312freq',
   'c:\\python27\\lib\\site-packages\\chardet\\gb2312freq.py',
   'PYMODULE'),
  ('chardet.euckrfreq',
   'c:\\python27\\lib\\site-packages\\chardet\\euckrfreq.py',
   'PYMODULE'),
  ('chardet.euctwfreq',
   'c:\\python27\\lib\\site-packages\\chardet\\euctwfreq.py',
   'PYMODULE'),
  ('chardet.codingstatemachine',
   'c:\\python27\\lib\\site-packages\\chardet\\codingstatemachine.py',
   'PYMODULE'),
  ('chardet.mbcharsetprober',
   'c:\\python27\\lib\\site-packages\\chardet\\mbcharsetprober.py',
   'PYMODULE'),
  ('chardet.big5prober',
   'c:\\python27\\lib\\site-packages\\chardet\\big5prober.py',
   'PYMODULE'),
  ('chardet.cp949prober',
   'c:\\python27\\lib\\site-packages\\chardet\\cp949prober.py',
   'PYMODULE'),
  ('chardet.euckrprober',
   'c:\\python27\\lib\\site-packages\\chardet\\euckrprober.py',
   'PYMODULE'),
  ('chardet.gb2312prober',
   'c:\\python27\\lib\\site-packages\\chardet\\gb2312prober.py',
   'PYMODULE'),
  ('chardet.eucjpprober',
   'c:\\python27\\lib\\site-packages\\chardet\\eucjpprober.py',
   'PYMODULE'),
  ('chardet.jpcntx',
   'c:\\python27\\lib\\site-packages\\chardet\\jpcntx.py',
   'PYMODULE'),
  ('chardet.sjisprober',
   'c:\\python27\\lib\\site-packages\\chardet\\sjisprober.py',
   'PYMODULE'),
  ('chardet.utf8prober',
   'c:\\python27\\lib\\site-packages\\chardet\\utf8prober.py',
   'PYMODULE'),
  ('chardet.latin1prober',
   'c:\\python27\\lib\\site-packages\\chardet\\latin1prober.py',
   'PYMODULE'),
  ('chardet.escprober',
   'c:\\python27\\lib\\site-packages\\chardet\\escprober.py',
   'PYMODULE'),
  ('chardet.escsm',
   'c:\\python27\\lib\\site-packages\\chardet\\escsm.py',
   'PYMODULE'),
  ('chardet.enums',
   'c:\\python27\\lib\\site-packages\\chardet\\enums.py',
   'PYMODULE'),
  ('chardet.charsetgroupprober',
   'c:\\python27\\lib\\site-packages\\chardet\\charsetgroupprober.py',
   'PYMODULE'),
  ('chardet.compat',
   'c:\\python27\\lib\\site-packages\\chardet\\compat.py',
   'PYMODULE'),
  ('urllib3',
   'c:\\python27\\lib\\site-packages\\urllib3\\__init__.py',
   'PYMODULE'),
  ('wx', 'c:\\python27\\lib\\site-packages\\wx\\__init__.py', 'PYMODULE'),
  ('wx.core', 'c:\\python27\\lib\\site-packages\\wx\\core.py', 'PYMODULE'),
  ('wx.lib.colourutils',
   'c:\\python27\\lib\\site-packages\\wx\\lib\\colourutils.py',
   'PYMODULE'),
  ('wx.lib',
   'c:\\python27\\lib\\site-packages\\wx\\lib\\__init__.py',
   'PYMODULE'),
  ('six', 'c:\\python27\\lib\\site-packages\\six.py', 'PYMODULE'),
  ('wx.__version__',
   'c:\\python27\\lib\\site-packages\\wx\\__version__.py',
   'PYMODULE'),
  ('_strptime', 'c:\\python27\\lib\\_strptime.py', 'PYMODULE'),
  ('os', 'c:\\python27\\lib\\os.py', 'PYMODULE'),
  ('os2emxpath', 'c:\\python27\\lib\\os2emxpath.py', 'PYMODULE')])
