('C:\\throuput\\build\\windowauto\\out00-PKG.pkg',
 {'BINARY': 1,
  'DATA': 1,
  'EXECUTABLE': 1,
  'EXTENSION': 1,
  'PYMODULE': 1,
  'PYSOURCE': 1,
  'PYZ': 0},
 [('out00-PYZ.pyz', 'C:\\throuput\\build\\windowauto\\out00-PYZ.pyz', 'PYZ'),
  ('struct', 'c:\\python27\\lib\\struct.pyc', 'PYMODULE'),
  ('pyimod01_os_path',
   'c:\\python27\\lib\\site-packages\\PyInstaller\\loader\\pyimod01_os_path.pyc',
   'PYMODULE'),
  ('pyimod02_archive',
   'c:\\python27\\lib\\site-packages\\PyInstaller\\loader\\pyimod02_archive.pyc',
   'PYMODULE'),
  ('pyimod03_importers',
   'c:\\python27\\lib\\site-packages\\PyInstaller\\loader\\pyimod03_importers.pyc',
   'PYMODULE'),
  ('pyiboot01_bootstrap',
   'c:\\python27\\lib\\site-packages\\PyInstaller\\loader\\pyiboot01_bootstrap.py',
   'PYSOURCE'),
  ('pyi_rth__tkinter',
   'c:\\python27\\lib\\site-packages\\PyInstaller\\loader\\rthooks\\pyi_rth__tkinter.py',
   'PYSOURCE'),
  ('windowauto', 'C:\\throuput\\windowauto.py', 'PYSOURCE'),
  ('windowauto.exe.manifest',
   'C:\\throuput\\build\\windowauto\\windowauto.exe.manifest',
   'BINARY')],
 True,
 False,
 False)
